{
"type": "FeatureCollection",
"name": "well",
"crs": { "type": "name", "properties": { "name": "urn:ogc:def:crs:OGC:1.3:CRS84" } },
"features": [
{ "type": "Feature", "properties": { "Well_water": 60, "join_Villa": "Takouba", "join_Demog": 48.0, "join_M_Typ": "Livestock farmer", "join_M_T_1": 2, "join_M_wat": 30.0, "distance": 0.0 }, "geometry": { "type": "Point", "coordinates": [ -2.16405200958252, 14.623715400694881 ] } },
{ "type": "Feature", "properties": { "Well_water": 350, "join_Villa": "Koba", "join_Demog": 89.0, "join_M_Typ": "Market gardener", "join_M_T_1": 1, "join_M_wat": 50.0, "distance": 0.0 }, "geometry": { "type": "Point", "coordinates": [ -2.444288492202759, 14.550710678099671 ] } },
{ "type": "Feature", "properties": { "Well_water": 250, "join_Villa": "Douari", "join_Demog": 65.0, "join_M_Typ": "Market gardener", "join_M_T_1": 1, "join_M_wat": 50.0, "distance": 0.0 }, "geometry": { "type": "Point", "coordinates": [ -2.30375599861145, 14.530098915099199 ] } },
{ "type": "Feature", "properties": { "Well_water": 650, "join_Villa": "Kolinki", "join_Demog": 126.0, "join_M_Typ": "Livestock farmer", "join_M_T_1": 2, "join_M_wat": 30.0, "distance": 0.0 }, "geometry": { "type": "Point", "coordinates": [ -2.130470275878906, 14.497933387755436 ] } },
{ "type": "Feature", "properties": { "Well_water": 850, "join_Villa": "Ouagadinlou", "join_Demog": 34.0, "join_M_Typ": "Market gardener", "join_M_T_1": 1, "join_M_wat": 50.0, "distance": 0.0 }, "geometry": { "type": "Point", "coordinates": [ -2.446320056915283, 14.462550163268137 ] } },
{ "type": "Feature", "properties": { "Well_water": 800, "join_Villa": "Dinangourou", "join_Demog": 57.0, "join_M_Typ": "Market gardener", "join_M_T_1": 1, "join_M_wat": 50.0, "distance": 0.0 }, "geometry": { "type": "Point", "coordinates": [ -2.240390062332153, 14.446184158324289 ] } },
{ "type": "Feature", "properties": { "Well_water": 650, "join_Villa": "Gangafani", "join_Demog": 60.0, "join_M_Typ": "Livestock farmer", "join_M_T_1": 2, "join_M_wat": 30.0, "distance": 0.0 }, "geometry": { "type": "Point", "coordinates": [ -2.391194581985473, 14.376661300658292 ] } },
{ "type": "Feature", "properties": { "Well_water": 500, "join_Villa": "Tiefora", "join_Demog": 87.0, "join_M_Typ": "Livestock farmer", "join_M_T_1": 2, "join_M_wat": 30.0, "distance": 0.0 }, "geometry": { "type": "Point", "coordinates": [ -2.293586492538452, 14.357555389403375 ] } },
{ "type": "Feature", "properties": { "Well_water": 360, "join_Villa": "Bamakodabi", "join_Demog": 98.0, "join_M_Typ": "Market gardener", "join_M_T_1": 1, "join_M_wat": 50.0, "distance": 0.0 }, "geometry": { "type": "Point", "coordinates": [ -2.190134763717651, 14.313794136046461 ] } },
{ "type": "Feature", "properties": { "Well_water": 250, "join_Villa": "Yoro", "join_Demog": 35.0, "join_M_Typ": "Market gardener", "join_M_T_1": 1, "join_M_wat": 50.0, "distance": 0.0 }, "geometry": { "type": "Point", "coordinates": [ -2.136336803436279, 14.272796630858469 ] } },
{ "type": "Feature", "properties": { "Well_water": 800, "join_Villa": "Dionouga", "join_Demog": 134.0, "join_M_Typ": "Livestock farmer", "join_M_T_1": 2, "join_M_wat": 30.0, "distance": 0.0 }, "geometry": { "type": "Point", "coordinates": [ -1.945217847824097, 14.54173564910797 ] } },
{ "type": "Feature", "properties": { "Well_water": 600, "join_Villa": "Yanle", "join_Demog": 86.0, "join_M_Typ": "Market gardener", "join_M_T_1": 1, "join_M_wat": 50.0, "distance": 0.0 }, "geometry": { "type": "Point", "coordinates": [ -2.03576922416687, 14.288852691649481 ] } },
{ "type": "Feature", "properties": { "Well_water": 950, "join_Villa": "Koba", "join_Demog": 89.0, "join_M_Typ": "Market gardener", "join_M_T_1": 1, "join_M_wat": 50.0, "distance": 0.056708630093225 }, "geometry": { "type": "Point", "coordinates": [ -2.424123606925368, 14.603713000018621 ] } },
{ "type": "Feature", "properties": { "Well_water": 950, "join_Villa": "Koba", "join_Demog": 89.0, "join_M_Typ": "Market gardener", "join_M_T_1": 1, "join_M_wat": 50.0, "distance": 0.055129712064590997 }, "geometry": { "type": "Point", "coordinates": [ -2.49443573630688, 14.527807860345376 ] } },
{ "type": "Feature", "properties": { "Well_water": 700, "join_Villa": "Douari", "join_Demog": 65.0, "join_M_Typ": "Market gardener", "join_M_T_1": 1, "join_M_wat": 50.0, "distance": 0.071634234954584999 }, "geometry": { "type": "Point", "coordinates": [ -2.375384517240458, 14.53100386622638 ] } },
{ "type": "Feature", "properties": { "Well_water": 750, "join_Villa": "Douari", "join_Demog": 65.0, "join_M_Typ": "Market gardener", "join_M_T_1": 1, "join_M_wat": 50.0, "distance": 0.079616753492271999 }, "geometry": { "type": "Point", "coordinates": [ -2.327444429025792, 14.606110004429336 ] } },
{ "type": "Feature", "properties": { "Well_water": 300, "join_Villa": "Takouba", "join_Demog": 48.0, "join_M_Typ": "Livestock farmer", "join_M_T_1": 2, "join_M_wat": 30.0, "distance": 0.062347812911764999 }, "geometry": { "type": "Point", "coordinates": [ -2.213187218780837, 14.585335966202981 ] } },
{ "type": "Feature", "properties": { "Well_water": 50, "join_Villa": "Takouba", "join_Demog": 48.0, "join_M_Typ": "Livestock farmer", "join_M_T_1": 2, "join_M_wat": 30.0, "distance": 0.105010570853381 }, "geometry": { "type": "Point", "coordinates": [ -2.262725309935993, 14.659643102935718 ] } },
{ "type": "Feature", "properties": { "Well_water": 200, "join_Villa": "Takouba", "join_Demog": 48.0, "join_M_Typ": "Livestock farmer", "join_M_T_1": 2, "join_M_wat": 30.0, "distance": 0.13102842523653399 }, "geometry": { "type": "Point", "coordinates": [ -2.040602901208039, 14.667633117638179 ] } },
{ "type": "Feature", "properties": { "Well_water": 900, "join_Villa": "Takouba", "join_Demog": 48.0, "join_M_Typ": "Livestock farmer", "join_M_T_1": 2, "join_M_wat": 30.0, "distance": 0.089566504437565003 }, "geometry": { "type": "Point", "coordinates": [ -2.086944986482216, 14.578144952970794 ] } },
{ "type": "Feature", "properties": { "Well_water": 650, "join_Villa": "Kolinki", "join_Demog": 126.0, "join_M_Typ": "Livestock farmer", "join_M_T_1": 2, "join_M_wat": 30.0, "distance": 0.074839543655727994 }, "geometry": { "type": "Point", "coordinates": [ -2.197207189375948, 14.531802867696614 ] } },
{ "type": "Feature", "properties": { "Well_water": 400, "join_Villa": "Dinangourou", "join_Demog": 57.0, "join_M_Typ": "Market gardener", "join_M_T_1": 1, "join_M_wat": 50.0, "distance": 0.061898541770303003 }, "geometry": { "type": "Point", "coordinates": [ -2.245946279060859, 14.50783282358927 ] } },
{ "type": "Feature", "properties": { "Well_water": 600, "join_Villa": "Kolinki", "join_Demog": 126.0, "join_M_Typ": "Livestock farmer", "join_M_T_1": 2, "join_M_wat": 30.0, "distance": 0.054294456021119 }, "geometry": { "type": "Point", "coordinates": [ -2.184423165852038, 14.491852794184386 ] } },
{ "type": "Feature", "properties": { "Well_water": 800, "join_Villa": "Douari", "join_Demog": 65.0, "join_M_Typ": "Market gardener", "join_M_T_1": 1, "join_M_wat": 50.0, "distance": 0.044773393067408997 }, "geometry": { "type": "Point", "coordinates": [ -2.300278379037481, 14.485460782422445 ] } },
{ "type": "Feature", "properties": { "Well_water": 550, "join_Villa": "Douari", "join_Demog": 65.0, "join_M_Typ": "Market gardener", "join_M_T_1": 1, "join_M_wat": 50.0, "distance": 0.025199023882640999 }, "geometry": { "type": "Point", "coordinates": [ -2.322650420204325, 14.513425833881001 ] } },
{ "type": "Feature", "properties": { "Well_water": 650, "join_Villa": "Gangafani", "join_Demog": 60.0, "join_M_Typ": "Livestock farmer", "join_M_T_1": 2, "join_M_wat": 30.0, "distance": 0.082390530116268998 }, "geometry": { "type": "Point", "coordinates": [ -2.349816470192637, 14.44790771332096 ] } },
{ "type": "Feature", "properties": { "Well_water": 800, "join_Villa": "Ouagadinlou", "join_Demog": 34.0, "join_M_Typ": "Market gardener", "join_M_T_1": 1, "join_M_wat": 50.0, "distance": 0.040696381240261002 }, "geometry": { "type": "Point", "coordinates": [ -2.409741580460969, 14.444711707439959 ] } },
{ "type": "Feature", "properties": { "Well_water": 750, "join_Villa": "Gangafani", "join_Demog": 60.0, "join_M_Typ": "Livestock farmer", "join_M_T_1": 2, "join_M_wat": 30.0, "distance": 0.033949970669584002 }, "geometry": { "type": "Point", "coordinates": [ -2.416133592222924, 14.353625539832091 ] } },
{ "type": "Feature", "properties": { "Well_water": 600, "join_Villa": "Gangafani", "join_Demog": 60.0, "join_M_Typ": "Livestock farmer", "join_M_T_1": 2, "join_M_wat": 30.0, "distance": 0.055438269012383003 }, "geometry": { "type": "Point", "coordinates": [ -2.348218467252147, 14.341640517778446 ] } },
{ "type": "Feature", "properties": { "Well_water": 600, "join_Villa": "Dinangourou", "join_Demog": 57.0, "join_M_Typ": "Market gardener", "join_M_T_1": 1, "join_M_wat": 50.0, "distance": 0.041365192206571998 }, "geometry": { "type": "Point", "coordinates": [ -2.277107336400392, 14.427133675094606 ] } },
{ "type": "Feature", "properties": { "Well_water": 700, "join_Villa": "Dinangourou", "join_Demog": 57.0, "join_M_Typ": "Market gardener", "join_M_T_1": 1, "join_M_wat": 50.0, "distance": 0.046935307141061998 }, "geometry": { "type": "Point", "coordinates": [ -2.223574237894015, 14.402364629517015 ] } },
{ "type": "Feature", "properties": { "Well_water": 380, "join_Villa": "Bamakodabi", "join_Demog": 98.0, "join_M_Typ": "Market gardener", "join_M_T_1": 1, "join_M_wat": 50.0, "distance": 0.063166467155682998 }, "geometry": { "type": "Point", "coordinates": [ -2.221177233483282, 14.368806567766754 ] } },
{ "type": "Feature", "properties": { "Well_water": 800, "join_Villa": "Tiefora", "join_Demog": 87.0, "join_M_Typ": "Livestock farmer", "join_M_T_1": 2, "join_M_wat": 30.0, "distance": 0.043836998133811998 }, "geometry": { "type": "Point", "coordinates": [ -2.256333298174037, 14.334449504546244 ] } },
{ "type": "Feature", "properties": { "Well_water": 900, "join_Villa": "Dinangourou", "join_Demog": 57.0, "join_M_Typ": "Market gardener", "join_M_T_1": 1, "join_M_wat": 50.0, "distance": 0.078366871011534001 }, "geometry": { "type": "Point", "coordinates": [ -2.165247130566171, 14.423937669213617 ] } },
{ "type": "Feature", "properties": { "Well_water": 650, "join_Villa": "Kolinki", "join_Demog": 126.0, "join_M_Typ": "Livestock farmer", "join_M_T_1": 2, "join_M_wat": 30.0, "distance": 0.036461690587642002 }, "geometry": { "type": "Point", "coordinates": [ -2.129292064405172, 14.461490738315089 ] } },
{ "type": "Feature", "properties": { "Well_water": 650, "join_Villa": "Kolinki", "join_Demog": 126.0, "join_M_Typ": "Livestock farmer", "join_M_T_1": 2, "join_M_wat": 30.0, "distance": 0.071836947569560994 }, "geometry": { "type": "Point", "coordinates": [ -2.061376939434394, 14.478269769190245 ] } },
{ "type": "Feature", "properties": { "Well_water": 500, "join_Villa": "Kolinki", "join_Demog": 126.0, "join_M_Typ": "Livestock farmer", "join_M_T_1": 2, "join_M_wat": 30.0, "distance": 0.049951234125233002 }, "geometry": { "type": "Point", "coordinates": [ -2.146071095280305, 14.54538589269078 ] } },
{ "type": "Feature", "properties": { "Well_water": 750, "join_Villa": "Dionouga", "join_Demog": 134.0, "join_M_Typ": "Livestock farmer", "join_M_T_1": 2, "join_M_wat": 30.0, "distance": 0.035852798738771001 }, "geometry": { "type": "Point", "coordinates": [ -1.977481785058728, 14.557370914744427 ] } },
{ "type": "Feature", "properties": { "Well_water": 480, "join_Villa": "Dionouga", "join_Demog": 134.0, "join_M_Typ": "Livestock farmer", "join_M_T_1": 2, "join_M_wat": 30.0, "distance": 0.057525772288063 }, "geometry": { "type": "Point", "coordinates": [ -1.916757673320151, 14.591727977964936 ] } },
{ "type": "Feature", "properties": { "Well_water": 850, "join_Villa": "Dionouga", "join_Demog": 134.0, "join_M_Typ": "Livestock farmer", "join_M_T_1": 2, "join_M_wat": 30.0, "distance": 0.083822610220439006 }, "geometry": { "type": "Point", "coordinates": [ -2.023823870332906, 14.512626832410753 ] } },
{ "type": "Feature", "properties": { "Well_water": 350, "join_Villa": "Yanle", "join_Demog": 86.0, "join_M_Typ": "Market gardener", "join_M_T_1": 1, "join_M_wat": 50.0, "distance": 0.058919691702966001 }, "geometry": { "type": "Point", "coordinates": [ -2.027818877684128, 14.34723352807015 ] } },
{ "type": "Feature", "properties": { "Well_water": 530, "join_Villa": "Yanle", "join_Demog": 86.0, "join_M_Typ": "Market gardener", "join_M_T_1": 1, "join_M_wat": 50.0, "distance": 0.087337182357338006 }, "geometry": { "type": "Point", "coordinates": [ -2.092537996773927, 14.355223542772599 ] } },
{ "type": "Feature", "properties": { "Well_water": 400, "join_Villa": "Kolinki", "join_Demog": 126.0, "join_M_Typ": "Livestock farmer", "join_M_T_1": 2, "join_M_wat": 30.0, "distance": 0.105701053288454 }, "geometry": { "type": "Point", "coordinates": [ -2.080552974720261, 14.404761633927757 ] } },
{ "type": "Feature", "properties": { "Well_water": 420, "join_Villa": "Bamakodabi", "join_Demog": 98.0, "join_M_Typ": "Market gardener", "join_M_T_1": 1, "join_M_wat": 50.0, "distance": 0.069031737831032003 }, "geometry": { "type": "Point", "coordinates": [ -2.155659112923238, 14.373600576588212 ] } },
{ "type": "Feature", "properties": { "Well_water": 950, "join_Villa": "Bamakodabi", "join_Demog": 98.0, "join_M_Typ": "Market gardener", "join_M_T_1": 1, "join_M_wat": 50.0, "distance": 0.034812796447363001 }, "geometry": { "type": "Point", "coordinates": [ -2.217981227602304, 14.292901428093534 ] } },
{ "type": "Feature", "properties": { "Well_water": 750, "join_Villa": "Bamakodabi", "join_Demog": 98.0, "join_M_Typ": "Market gardener", "join_M_T_1": 1, "join_M_wat": 50.0, "distance": 0.024717164687753 }, "geometry": { "type": "Point", "coordinates": [ -2.206795207018882, 14.332052500135502 ] } },
{ "type": "Feature", "properties": { "Well_water": 950, "join_Villa": "Yanle", "join_Demog": 86.0, "join_M_Typ": "Market gardener", "join_M_T_1": 1, "join_M_wat": 50.0, "distance": 0.033876014466944999 }, "geometry": { "type": "Point", "coordinates": [ -2.044597908559261, 14.256147360462284 ] } },
{ "type": "Feature", "properties": { "Well_water": 500, "join_Villa": "Yanle", "join_Demog": 86.0, "join_M_Typ": "Market gardener", "join_M_T_1": 1, "join_M_wat": 50.0, "distance": 0.020787933855351 }, "geometry": { "type": "Point", "coordinates": [ -2.054185926202194, 14.298494438385241 ] } },
{ "type": "Feature", "properties": { "Well_water": 800, "join_Villa": "Takouba", "join_Demog": 48.0, "join_M_Typ": "Livestock farmer", "join_M_T_1": 2, "join_M_wat": 30.0, "distance": 0.043120597606187999 }, "geometry": { "type": "Point", "coordinates": [ -2.163649127625682, 14.666834116167905 ] } },
{ "type": "Feature", "properties": { "Well_water": 700, "join_Villa": "Takouba", "join_Demog": 48.0, "join_M_Typ": "Livestock farmer", "join_M_T_1": 2, "join_M_wat": 30.0, "distance": 0.044133157022015 }, "geometry": { "type": "Point", "coordinates": [ -2.129292064405172, 14.596521986786406 ] } }
]
}
